%YAML 1.1
%TAG !u! tag:unity3d.com,2011:
--- !u!1 &296276648368673438
GameObject:
  m_ObjectHideFlags: 0
  m_CorrespondingSourceObject: {fileID: 0}
  m_PrefabInstance: {fileID: 0}
  m_PrefabAsset: {fileID: 0}
  serializedVersion: 6
  m_Component:
  - component: {fileID: 2819506165967195087}
  - component: {fileID: 591075513024956790}
  - component: {fileID: 389420121624587545}
  - component: {fileID: 474673067788208766}
  - component: {fileID: 6580808534603955816}
  m_Layer: 0
  m_Name: Platform
  m_TagString: Untagged
  m_Icon: {fileID: 0}
  m_NavMeshLayer: 0
  m_StaticEditorFlags: 0
  m_IsActive: 1
--- !u!4 &2819506165967195087
Transform:
  m_ObjectHideFlags: 0
  m_CorrespondingSourceObject: {fileID: 0}
  m_PrefabInstance: {fileID: 0}
  m_PrefabAsset: {fileID: 0}
  m_GameObject: {fileID: 296276648368673438}
  m_LocalRotation: {x: 0, y: 0, z: 1, w: 0}
  m_LocalPosition: {x: 14.828, y: 5.285, z: 22.931}
  m_LocalScale: {x: 1, y: 1, z: 1}
  m_ConstrainProportionsScale: 0
  m_Children: []
  m_Father: {fileID: 0}
  m_RootOrder: 0
  m_LocalEulerAnglesHint: {x: 0, y: 0, z: 180}
--- !u!114 &591075513024956790
MonoBehaviour:
  m_ObjectHideFlags: 0
  m_CorrespondingSourceObject: {fileID: 0}
  m_PrefabInstance: {fileID: 0}
  m_PrefabAsset: {fileID: 0}
  m_GameObject: {fileID: 296276648368673438}
  m_Enabled: 1
  m_EditorHideFlags: 0
  m_Script: {fileID: 11500000, guid: 8233d90336aea43098adf6dbabd606a2, type: 3}
  m_Name: 
  m_EditorClassIdentifier: 
  m_MeshFormatVersion: 2
  m_Faces:
  - m_Indexes: 020000000100000000000000
    m_SmoothingGroup: 0
    m_Uv:
      m_UseWorldSpace: 0
      m_FlipU: 0
      m_FlipV: 0
      m_SwapUV: 0
      m_Fill: 1
      m_Scale: {x: 1, y: 1}
      m_Offset: {x: 0, y: 0}
      m_Rotation: 0
      m_Anchor: 6
    m_Material: {fileID: 2100000, guid: c22777d6e868e4f2fb421913386b154e, type: 2}
    m_SubmeshIndex: 0
    m_ManualUV: 1
    elementGroup: 0
    m_TextureGroup: -1
  - m_Indexes: 030000000400000005000000
    m_SmoothingGroup: 0
    m_Uv:
      m_UseWorldSpace: 0
      m_FlipU: 0
      m_FlipV: 0
      m_SwapUV: 0
      m_Fill: 1
      m_Scale: {x: 1, y: 1}
      m_Offset: {x: 0, y: 0}
      m_Rotation: 0
      m_Anchor: 9
    m_Material: {fileID: 2100000, guid: c22777d6e868e4f2fb421913386b154e, type: 2}
    m_SubmeshIndex: 0
    m_ManualUV: 0
    elementGroup: 0
    m_TextureGroup: -1
  - m_Indexes: 080000000700000006000000
    m_SmoothingGroup: 0
    m_Uv:
      m_UseWorldSpace: 0
      m_FlipU: 0
      m_FlipV: 0
      m_SwapUV: 0
      m_Fill: 1
      m_Scale: {x: 1, y: 1}
      m_Offset: {x: 0, y: 0}
      m_Rotation: 0
      m_Anchor: 9
    m_Material: {fileID: 2100000, guid: c22777d6e868e4f2fb421913386b154e, type: 2}
    m_SubmeshIndex: 0
    m_ManualUV: 1
    elementGroup: 0
    m_TextureGroup: -1
  - m_Indexes: 090000000a0000000b000000
    m_SmoothingGroup: 0
    m_Uv:
      m_UseWorldSpace: 0
      m_FlipU: 0
      m_FlipV: 0
      m_SwapUV: 0
      m_Fill: 1
      m_Scale: {x: 1, y: 1}
      m_Offset: {x: 0, y: 0}
      m_Rotation: 0
      m_Anchor: 9
    m_Material: {fileID: 2100000, guid: c22777d6e868e4f2fb421913386b154e, type: 2}
    m_SubmeshIndex: 0
    m_ManualUV: 0
    elementGroup: 0
    m_TextureGroup: -1
  - m_Indexes: 0e0000000d0000000c000000
    m_SmoothingGroup: 0
    m_Uv:
      m_UseWorldSpace: 0
      m_FlipU: 0
      m_FlipV: 0
      m_SwapUV: 0
      m_Fill: 1
      m_Scale: {x: 1, y: 1}
      m_Offset: {x: 0, y: 0}
      m_Rotation: 0
      m_Anchor: 9
    m_Material: {fileID: 2100000, guid: c22777d6e868e4f2fb421913386b154e, type: 2}
    m_SubmeshIndex: 0
    m_ManualUV: 1
    elementGroup: 0
    m_TextureGroup: -1
  - m_Indexes: 0f0000001000000011000000
    m_SmoothingGroup: 0
    m_Uv:
      m_UseWorldSpace: 0
      m_FlipU: 0
      m_FlipV: 0
      m_SwapUV: 0
      m_Fill: 1
      m_Scale: {x: 1, y: 1}
      m_Offset: {x: 0, y: 0}
      m_Rotation: 0
      m_Anchor: 9
    m_Material: {fileID: 2100000, guid: c22777d6e868e4f2fb421913386b154e, type: 2}
    m_SubmeshIndex: 0
    m_ManualUV: 0
    elementGroup: 0
    m_TextureGroup: -1
  - m_Indexes: 140000001300000012000000
    m_SmoothingGroup: 0
    m_Uv:
      m_UseWorldSpace: 0
      m_FlipU: 0
      m_FlipV: 0
      m_SwapUV: 0
      m_Fill: 1
      m_Scale: {x: 1, y: 1}
      m_Offset: {x: 0, y: 0}
      m_Rotation: 0
      m_Anchor: 9
    m_Material: {fileID: 2100000, guid: c22777d6e868e4f2fb421913386b154e, type: 2}
    m_SubmeshIndex: 0
    m_ManualUV: 1
    elementGroup: 0
    m_TextureGroup: -1
  - m_Indexes: 150000001600000017000000
    m_SmoothingGroup: 0
    m_Uv:
      m_UseWorldSpace: 0
      m_FlipU: 0
      m_FlipV: 0
      m_SwapUV: 0
      m_Fill: 1
      m_Scale: {x: 1, y: 1}
      m_Offset: {x: 0, y: 0}
      m_Rotation: 0
      m_Anchor: 9
    m_Material: {fileID: 2100000, guid: c22777d6e868e4f2fb421913386b154e, type: 2}
    m_SubmeshIndex: 0
    m_ManualUV: 0
    elementGroup: 0
    m_TextureGroup: -1
  - m_Indexes: 1a0000001900000018000000
    m_SmoothingGroup: 0
    m_Uv:
      m_UseWorldSpace: 0
      m_FlipU: 0
      m_FlipV: 0
      m_SwapUV: 0
      m_Fill: 1
      m_Scale: {x: 1, y: 1}
      m_Offset: {x: 0, y: 0}
      m_Rotation: 0
      m_Anchor: 9
    m_Material: {fileID: 2100000, guid: c22777d6e868e4f2fb421913386b154e, type: 2}
    m_SubmeshIndex: 0
    m_ManualUV: 1
    elementGroup: 0
    m_TextureGroup: -1
  - m_Indexes: 1b0000001c0000001d000000
    m_SmoothingGroup: 0
    m_Uv:
      m_UseWorldSpace: 0
      m_FlipU: 0
      m_FlipV: 0
      m_SwapUV: 0
      m_Fill: 1
      m_Scale: {x: 1, y: 1}
      m_Offset: {x: 0, y: 0}
      m_Rotation: 0
      m_Anchor: 9
    m_Material: {fileID: 2100000, guid: c22777d6e868e4f2fb421913386b154e, type: 2}
    m_SubmeshIndex: 0
    m_ManualUV: 0
    elementGroup: 0
    m_TextureGroup: -1
  - m_Indexes: 200000001f0000001e000000
    m_SmoothingGroup: 0
    m_Uv:
      m_UseWorldSpace: 0
      m_FlipU: 0
      m_FlipV: 0
      m_SwapUV: 0
      m_Fill: 1
      m_Scale: {x: 1, y: 1}
      m_Offset: {x: 0, y: 0}
      m_Rotation: 0
      m_Anchor: 9
    m_Material: {fileID: 2100000, guid: c22777d6e868e4f2fb421913386b154e, type: 2}
    m_SubmeshIndex: 0
    m_ManualUV: 1
    elementGroup: 0
    m_TextureGroup: -1
  - m_Indexes: 210000002200000023000000
    m_SmoothingGroup: 0
    m_Uv:
      m_UseWorldSpace: 0
      m_FlipU: 0
      m_FlipV: 0
      m_SwapUV: 0
      m_Fill: 1
      m_Scale: {x: 1, y: 1}
      m_Offset: {x: 0, y: 0}
      m_Rotation: 0
      m_Anchor: 9
    m_Material: {fileID: 2100000, guid: c22777d6e868e4f2fb421913386b154e, type: 2}
    m_SubmeshIndex: 0
    m_ManualUV: 0
    elementGroup: 0
    m_TextureGroup: -1
  - m_Indexes: 260000002500000024000000
    m_SmoothingGroup: 0
    m_Uv:
      m_UseWorldSpace: 0
      m_FlipU: 0
      m_FlipV: 0
      m_SwapUV: 0
      m_Fill: 1
      m_Scale: {x: 1, y: 1}
      m_Offset: {x: 0, y: 0}
      m_Rotation: 0
      m_Anchor: 9
    m_Material: {fileID: 2100000, guid: c22777d6e868e4f2fb421913386b154e, type: 2}
    m_SubmeshIndex: 0
    m_ManualUV: 1
    elementGroup: 0
    m_TextureGroup: -1
  - m_Indexes: 270000002800000029000000
    m_SmoothingGroup: 0
    m_Uv:
      m_UseWorldSpace: 0
      m_FlipU: 0
      m_FlipV: 0
      m_SwapUV: 0
      m_Fill: 1
      m_Scale: {x: 1, y: 1}
      m_Offset: {x: 0, y: 0}
      m_Rotation: 0
      m_Anchor: 9
    m_Material: {fileID: 2100000, guid: c22777d6e868e4f2fb421913386b154e, type: 2}
    m_SubmeshIndex: 0
    m_ManualUV: 0
    elementGroup: 0
    m_TextureGroup: -1
  - m_Indexes: 2c0000002b0000002a000000
    m_SmoothingGroup: 0
    m_Uv:
      m_UseWorldSpace: 0
      m_FlipU: 0
      m_FlipV: 0
      m_SwapUV: 0
      m_Fill: 1
      m_Scale: {x: 1, y: 1}
      m_Offset: {x: 0, y: 0}
      m_Rotation: 0
      m_Anchor: 9
    m_Material: {fileID: 2100000, guid: c22777d6e868e4f2fb421913386b154e, type: 2}
    m_SubmeshIndex: 0
    m_ManualUV: 1
    elementGroup: 0
    m_TextureGroup: -1
  - m_Indexes: 2d0000002e0000002f000000
    m_SmoothingGroup: 0
    m_Uv:
      m_UseWorldSpace: 0
      m_FlipU: 0
      m_FlipV: 0
      m_SwapUV: 0
      m_Fill: 1
      m_Scale: {x: 1, y: 1}
      m_Offset: {x: 0, y: 0}
      m_Rotation: 0
      m_Anchor: 9
    m_Material: {fileID: 2100000, guid: c22777d6e868e4f2fb421913386b154e, type: 2}
    m_SubmeshIndex: 0
    m_ManualUV: 0
    elementGroup: 0
    m_TextureGroup: -1
  m_SharedVertices:
  - m_Vertices: 00000000030000002b0000002e000000
  - m_Vertices: 01000000040000000600000009000000
  - m_Vertices: 02000000080000000e000000140000001a00000020000000260000002c000000
  - m_Vertices: 050000000b00000011000000170000001d00000023000000290000002f000000
  - m_Vertices: 070000000a0000000c0000000f000000
  - m_Vertices: 0d000000100000001200000015000000
  - m_Vertices: 1300000016000000180000001b000000
  - m_Vertices: 190000001c0000001e00000021000000
  - m_Vertices: 1f000000220000002400000027000000
  - m_Vertices: 25000000280000002a0000002d000000
  m_SharedTextures: []
  m_Positions:
  - {x: 1, y: 0, z: 0.5}
  - {x: 0.8535534, y: 0, z: 0.8535534}
  - {x: 0.5, y: 0.4915347, z: 0.5}
  - {x: 1, y: 0, z: 0.5}
  - {x: 0.8535534, y: 0, z: 0.8535534}
  - {x: 0.5, y: 0, z: 0.5}
  - {x: 0.8535534, y: 0, z: 0.8535534}
  - {x: 0.49999997, y: 0, z: 1}
  - {x: 0.5, y: 0.4915347, z: 0.5}
  - {x: 0.8535534, y: 0, z: 0.8535534}
  - {x: 0.49999997, y: 0, z: 1}
  - {x: 0.5, y: 0, z: 0.5}
  - {x: 0.49999997, y: 0, z: 1}
  - {x: 0.14644662, y: 0, z: 0.8535534}
  - {x: 0.5, y: 0.4915347, z: 0.5}
  - {x: 0.49999997, y: 0, z: 1}
  - {x: 0.14644662, y: 0, z: 0.8535534}
  - {x: 0.5, y: 0, z: 0.5}
  - {x: 0.14644662, y: 0, z: 0.8535534}
  - {x: 0, y: 0, z: 0.49999997}
  - {x: 0.5, y: 0.4915347, z: 0.5}
  - {x: 0.14644662, y: 0, z: 0.8535534}
  - {x: 0, y: 0, z: 0.49999997}
  - {x: 0.5, y: 0, z: 0.5}
  - {x: 0, y: 0, z: 0.49999997}
  - {x: 0.14644659, y: 0, z: 0.14644665}
  - {x: 0.5, y: 0.4915347, z: 0.5}
  - {x: 0, y: 0, z: 0.49999997}
  - {x: 0.14644659, y: 0, z: 0.14644665}
  - {x: 0.5, y: 0, z: 0.5}
  - {x: 0.14644659, y: 0, z: 0.14644665}
  - {x: 0.5, y: 0, z: 0}
  - {x: 0.5, y: 0.4915347, z: 0.5}
  - {x: 0.14644659, y: 0, z: 0.14644665}
  - {x: 0.5, y: 0, z: 0}
  - {x: 0.5, y: 0, z: 0.5}
  - {x: 0.5, y: 0, z: 0}
  - {x: 0.8535533, y: 0, z: 0.14644656}
  - {x: 0.5, y: 0.4915347, z: 0.5}
  - {x: 0.5, y: 0, z: 0}
  - {x: 0.8535533, y: 0, z: 0.14644656}
  - {x: 0.5, y: 0, z: 0.5}
  - {x: 0.8535533, y: 0, z: 0.14644656}
  - {x: 1, y: 0, z: 0.5}
  - {x: 0.5, y: 0.4915347, z: 0.5}
  - {x: 0.8535533, y: 0, z: 0.14644656}
  - {x: 1, y: 0, z: 0.5}
  - {x: 0.5, y: 0, z: 0.5}
  m_Textures0:
  - {x: 0, y: 0}
  - {x: 0.38268346, y: 0}
  - {x: 0.19134167, y: 1.101539}
  - {x: -1, y: 0.5}
  - {x: -0.8535534, y: 0.8535534}
  - {x: -0.5, y: 0.5}
  - {x: 0, y: 0}
  - {x: 0.38268346, y: 0}
  - {x: 0.19134167, y: 1.101539}
  - {x: -0.8535534, y: 0.8535534}
  - {x: -0.49999997, y: 1}
  - {x: -0.5, y: 0.5}
  - {x: 0, y: 0}
  - {x: 0.38268346, y: 0}
  - {x: 0.19134167, y: 1.101539}
  - {x: -0.49999997, y: 1}
  - {x: -0.14644662, y: 0.8535534}
  - {x: -0.5, y: 0.5}
  - {x: 0, y: 0}
  - {x: 0.38268346, y: 0}
  - {x: 0.19134167, y: 1.101539}
  - {x: -0.14644662, y: 0.8535534}
  - {x: 0, y: 0.49999997}
  - {x: -0.5, y: 0.5}
  - {x: 0, y: 0}
  - {x: 0.38268346, y: 0}
  - {x: 0.19134167, y: 1.101539}
  - {x: 0, y: 0.49999997}
  - {x: -0.14644659, y: 0.14644665}
  - {x: -0.5, y: 0.5}
  - {x: 0, y: 0}
  - {x: 0.38268346, y: 0}
  - {x: 0.19134167, y: 1.101539}
  - {x: -0.14644659, y: 0.14644665}
  - {x: -0.5, y: 0}
  - {x: -0.5, y: 0.5}
  - {x: 0, y: 0}
  - {x: 0.38268346, y: 0}
  - {x: 0.19134167, y: 1.101539}
  - {x: -0.5, y: 0}
  - {x: -0.8535533, y: 0.14644656}
  - {x: -0.5, y: 0.5}
  - {x: 0, y: 0}
  - {x: 0.38268346, y: 0}
  - {x: 0.19134167, y: 1.101539}
  - {x: -0.8535533, y: 0.14644656}
  - {x: -1, y: 0.5}
  - {x: -0.5, y: 0.5}
  m_Textures2: []
  m_Textures3: []
  m_Tangents:
  - {x: -0.38268337, y: 0, z: 0.92387956, w: -1}
  - {x: -0.38268337, y: 0, z: 0.92387956, w: -1}
  - {x: -0.38268337, y: 0, z: 0.92387956, w: -1}
  - {x: -1, y: 0, z: 0, w: -1}
  - {x: -1, y: 0, z: 0, w: -1}
  - {x: -1, y: 0, z: 0, w: -1}
  - {x: -0.9238796, y: 0.000000020409496, z: 0.38268337, w: -1}
  - {x: -0.9238796, y: 0.000000020409496, z: 0.38268337, w: -1}
  - {x: -0.9238796, y: 0.000000020409496, z: 0.38268337, w: -1}
  - {x: -1, y: 0, z: 0, w: -1}
  - {x: -1, y: 0, z: 0, w: -1}
  - {x: -1, y: 0, z: 0, w: -1}
  - {x: -0.92387956, y: -0.0000000204095, z: -0.38268343, w: -1}
  - {x: -0.92387956, y: -0.0000000204095, z: -0.38268343, w: -1}
  - {x: -0.92387956, y: -0.0000000204095, z: -0.38268343, w: -1}
  - {x: -1, y: 0, z: 0, w: -1}
  - {x: -1, y: 0, z: 0, w: -1}
  - {x: -1, y: 0, z: 0, w: -1}
  - {x: -0.38268346, y: 0.000000020409496, z: -0.9238796, w: -1}
  - {x: -0.38268346, y: 0.000000020409496, z: -0.9238796, w: -1}
  - {x: -0.38268346, y: 0.000000020409496, z: -0.9238796, w: -1}
  - {x: -1, y: 0, z: 0, w: -1}
  - {x: -1, y: 0, z: 0, w: -1}
  - {x: -1, y: 0, z: 0, w: -1}
  - {x: 0.38268343, y: 0, z: -0.92387956, w: -1}
  - {x: 0.38268343, y: 0, z: -0.92387956, w: -1}
  - {x: 0.38268343, y: 0, z: -0.92387956, w: -1}
  - {x: -1, y: 0, z: 0, w: -1}
  - {x: -1, y: 0, z: 0, w: -1}
  - {x: -1, y: 0, z: 0, w: -1}
  - {x: 0.9238795, y: -0.000000020409496, z: -0.38268346, w: -1}
  - {x: 0.9238795, y: -0.000000020409496, z: -0.38268346, w: -1}
  - {x: 0.9238795, y: -0.000000020409496, z: -0.38268346, w: -1}
  - {x: -1, y: 0, z: 0, w: -1}
  - {x: -1, y: 0, z: 0, w: -1}
  - {x: -1, y: 0, z: 0, w: -1}
  - {x: 0.92387956, y: 0.000000020409505, z: 0.3826834, w: -1}
  - {x: 0.92387956, y: 0.000000020409505, z: 0.3826834, w: -1}
  - {x: 0.92387956, y: 0.000000020409505, z: 0.3826834, w: -1}
  - {x: -1, y: 0, z: 0, w: -1}
  - {x: -1, y: 0, z: 0, w: -1}
  - {x: -1, y: 0, z: 0, w: -1}
  - {x: 0.3826836, y: 0, z: 0.9238795, w: -1}
  - {x: 0.3826836, y: 0, z: 0.9238795, w: -1}
  - {x: 0.3826836, y: 0, z: 0.9238795, w: -1}
  - {x: -1, y: 0, z: 0, w: -1}
  - {x: -1, y: 0, z: 0, w: -1}
  - {x: -1, y: 0, z: 0, w: -1}
  m_Colors: []
  m_UnwrapParameters:
    m_HardAngle: 88
    m_PackMargin: 20
    m_AngleError: 8
    m_AreaError: 15
  m_PreserveMeshAssetOnDestroy: 0
  assetGuid: 
  m_Mesh: {fileID: 0}
  m_VersionIndex: 187
  m_IsSelectable: 1
  m_SelectedFaces: 
  m_SelectedEdges: []
  m_SelectedVertices: 
--- !u!23 &389420121624587545
MeshRenderer:
  m_ObjectHideFlags: 0
  m_CorrespondingSourceObject: {fileID: 0}
  m_PrefabInstance: {fileID: 0}
  m_PrefabAsset: {fileID: 0}
  m_GameObject: {fileID: 296276648368673438}
  m_Enabled: 1
  m_CastShadows: 1
  m_ReceiveShadows: 1
  m_DynamicOccludee: 1
  m_StaticShadowCaster: 0
  m_MotionVectors: 1
  m_LightProbeUsage: 1
  m_ReflectionProbeUsage: 1
  m_RayTracingMode: 2
  m_RayTraceProcedural: 0
  m_RenderingLayerMask: 1
  m_RendererPriority: 0
  m_Materials:
  - {fileID: 2100000, guid: c22777d6e868e4f2fb421913386b154e, type: 2}
  m_StaticBatchInfo:
    firstSubMesh: 0
    subMeshCount: 0
  m_StaticBatchRoot: {fileID: 0}
  m_ProbeAnchor: {fileID: 0}
  m_LightProbeVolumeOverride: {fileID: 0}
  m_ScaleInLightmap: 1
  m_ReceiveGI: 1
  m_PreserveUVs: 0
  m_IgnoreNormalsForChartDetection: 0
  m_ImportantGI: 0
  m_StitchLightmapSeams: 1
  m_SelectedEditorRenderState: 2
  m_MinimumChartSize: 4
  m_AutoUVMaxDistance: 0.5
  m_AutoUVMaxAngle: 89
  m_LightmapParameters: {fileID: 0}
  m_SortingLayerID: 0
  m_SortingLayer: 0
  m_SortingOrder: 0
  m_AdditionalVertexStreams: {fileID: 0}
--- !u!33 &474673067788208766
MeshFilter:
  m_ObjectHideFlags: 0
  m_CorrespondingSourceObject: {fileID: 0}
  m_PrefabInstance: {fileID: 0}
  m_PrefabAsset: {fileID: 0}
  m_GameObject: {fileID: 296276648368673438}
  m_Mesh: {fileID: 0}
--- !u!64 &6580808534603955816
MeshCollider:
  m_ObjectHideFlags: 0
  m_CorrespondingSourceObject: {fileID: 0}
  m_PrefabInstance: {fileID: 0}
  m_PrefabAsset: {fileID: 0}
  m_GameObject: {fileID: 296276648368673438}
  m_Material: {fileID: 0}
  m_IsTrigger: 0
  m_Enabled: 1
  serializedVersion: 4
  m_Convex: 0
  m_CookingOptions: 30
  m_Mesh: {fileID: 0}
