%YAML 1.1
%TAG !u! tag:unity3d.com,2011:
--- !u!1001 &9156015915419576030
PrefabInstance:
  m_ObjectHideFlags: 0
  serializedVersion: 2
  m_Modification:
    m_TransformParent: {fileID: 0}
    m_Modifications:
    - target: {fileID: 24972925623223983, guid: e02f5c539ed97d14e80546d6ddb0946d, type: 3}
      propertyPath: m_Name
      value: Cube (2)
      objectReference: {fileID: 0}
    - target: {fileID: 1170237601473649523, guid: e02f5c539ed97d14e80546d6ddb0946d, type: 3}
      propertyPath: m_Mesh
      value: 
      objectReference: {fileID: 0}
    - target: {fileID: 1170237601473649523, guid: e02f5c539ed97d14e80546d6ddb0946d, type: 3}
      propertyPath: m_VersionIndex
      value: 2398
      objectReference: {fileID: 0}
    - target: {fileID: 1170237601473649523, guid: e02f5c539ed97d14e80546d6ddb0946d, type: 3}
      propertyPath: m_SelectedEdges.Array.size
      value: 4
      objectReference: {fileID: 0}
    - target: {fileID: 1170237601473649523, guid: e02f5c539ed97d14e80546d6ddb0946d, type: 3}
      propertyPath: m_SelectedFaces.Array.size
      value: 1
      objectReference: {fileID: 0}
    - target: {fileID: 1170237601473649523, guid: e02f5c539ed97d14e80546d6ddb0946d, type: 3}
      propertyPath: m_Tangents.Array.data[0].y
      value: 0
      objectReference: {fileID: 0}
    - target: {fileID: 1170237601473649523, guid: e02f5c539ed97d14e80546d6ddb0946d, type: 3}
      propertyPath: m_Tangents.Array.data[0].z
      value: 0.00000070330657
      objectReference: {fileID: 0}
    - target: {fileID: 1170237601473649523, guid: e02f5c539ed97d14e80546d6ddb0946d, type: 3}
      propertyPath: m_Tangents.Array.data[1].y
      value: 0
      objectReference: {fileID: 0}
    - target: {fileID: 1170237601473649523, guid: e02f5c539ed97d14e80546d6ddb0946d, type: 3}
      propertyPath: m_Tangents.Array.data[1].z
      value: 0.00000070330657
      objectReference: {fileID: 0}
    - target: {fileID: 1170237601473649523, guid: e02f5c539ed97d14e80546d6ddb0946d, type: 3}
      propertyPath: m_Tangents.Array.data[2].y
      value: 0
      objectReference: {fileID: 0}
    - target: {fileID: 1170237601473649523, guid: e02f5c539ed97d14e80546d6ddb0946d, type: 3}
      propertyPath: m_Tangents.Array.data[2].z
      value: 0.00000070330657
      objectReference: {fileID: 0}
    - target: {fileID: 1170237601473649523, guid: e02f5c539ed97d14e80546d6ddb0946d, type: 3}
      propertyPath: m_Tangents.Array.data[3].y
      value: 0
      objectReference: {fileID: 0}
    - target: {fileID: 1170237601473649523, guid: e02f5c539ed97d14e80546d6ddb0946d, type: 3}
      propertyPath: m_Tangents.Array.data[3].z
      value: 0.00000070330657
      objectReference: {fileID: 0}
    - target: {fileID: 1170237601473649523, guid: e02f5c539ed97d14e80546d6ddb0946d, type: 3}
      propertyPath: m_Tangents.Array.data[4].x
      value: 0.00000050320386
      objectReference: {fileID: 0}
    - target: {fileID: 1170237601473649523, guid: e02f5c539ed97d14e80546d6ddb0946d, type: 3}
      propertyPath: m_Tangents.Array.data[4].y
      value: 0
      objectReference: {fileID: 0}
    - target: {fileID: 1170237601473649523, guid: e02f5c539ed97d14e80546d6ddb0946d, type: 3}
      propertyPath: m_Tangents.Array.data[5].x
      value: 0.00000020128158
      objectReference: {fileID: 0}
    - target: {fileID: 1170237601473649523, guid: e02f5c539ed97d14e80546d6ddb0946d, type: 3}
      propertyPath: m_Tangents.Array.data[5].y
      value: 0
      objectReference: {fileID: 0}
    - target: {fileID: 1170237601473649523, guid: e02f5c539ed97d14e80546d6ddb0946d, type: 3}
      propertyPath: m_Tangents.Array.data[6].x
      value: 0.00000020128158
      objectReference: {fileID: 0}
    - target: {fileID: 1170237601473649523, guid: e02f5c539ed97d14e80546d6ddb0946d, type: 3}
      propertyPath: m_Tangents.Array.data[6].y
      value: 0
      objectReference: {fileID: 0}
    - target: {fileID: 1170237601473649523, guid: e02f5c539ed97d14e80546d6ddb0946d, type: 3}
      propertyPath: m_Tangents.Array.data[7].x
      value: -0.00000010064071
      objectReference: {fileID: 0}
    - target: {fileID: 1170237601473649523, guid: e02f5c539ed97d14e80546d6ddb0946d, type: 3}
      propertyPath: m_Tangents.Array.data[7].y
      value: 0
      objectReference: {fileID: 0}
    - target: {fileID: 1170237601473649523, guid: e02f5c539ed97d14e80546d6ddb0946d, type: 3}
      propertyPath: m_Tangents.Array.data[8].y
      value: 0
      objectReference: {fileID: 0}
    - target: {fileID: 1170237601473649523, guid: e02f5c539ed97d14e80546d6ddb0946d, type: 3}
      propertyPath: m_Tangents.Array.data[8].z
      value: -0.00000039150467
      objectReference: {fileID: 0}
    - target: {fileID: 1170237601473649523, guid: e02f5c539ed97d14e80546d6ddb0946d, type: 3}
      propertyPath: m_Tangents.Array.data[9].y
      value: 0
      objectReference: {fileID: 0}
    - target: {fileID: 1170237601473649523, guid: e02f5c539ed97d14e80546d6ddb0946d, type: 3}
      propertyPath: m_Tangents.Array.data[9].z
      value: -0.0000005380373
      objectReference: {fileID: 0}
    - target: {fileID: 1170237601473649523, guid: e02f5c539ed97d14e80546d6ddb0946d, type: 3}
      propertyPath: m_Positions.Array.data[0].x
      value: -0.84472287
      objectReference: {fileID: 0}
    - target: {fileID: 1170237601473649523, guid: e02f5c539ed97d14e80546d6ddb0946d, type: 3}
      propertyPath: m_Positions.Array.data[0].z
      value: 1.1845046
      objectReference: {fileID: 0}
    - target: {fileID: 1170237601473649523, guid: e02f5c539ed97d14e80546d6ddb0946d, type: 3}
      propertyPath: m_Positions.Array.data[1].x
      value: 1.5282537
      objectReference: {fileID: 0}
    - target: {fileID: 1170237601473649523, guid: e02f5c539ed97d14e80546d6ddb0946d, type: 3}
      propertyPath: m_Positions.Array.data[1].z
      value: 1.184503
      objectReference: {fileID: 0}
    - target: {fileID: 1170237601473649523, guid: e02f5c539ed97d14e80546d6ddb0946d, type: 3}
      propertyPath: m_Positions.Array.data[2].x
      value: -0.84472287
      objectReference: {fileID: 0}
    - target: {fileID: 1170237601473649523, guid: e02f5c539ed97d14e80546d6ddb0946d, type: 3}
      propertyPath: m_Positions.Array.data[2].y
      value: 1.4980073
      objectReference: {fileID: 0}
    - target: {fileID: 1170237601473649523, guid: e02f5c539ed97d14e80546d6ddb0946d, type: 3}
      propertyPath: m_Positions.Array.data[2].z
      value: 1.1845161
      objectReference: {fileID: 0}
    - target: {fileID: 1170237601473649523, guid: e02f5c539ed97d14e80546d6ddb0946d, type: 3}
      propertyPath: m_Positions.Array.data[3].x
      value: 1.5282537
      objectReference: {fileID: 0}
    - target: {fileID: 1170237601473649523, guid: e02f5c539ed97d14e80546d6ddb0946d, type: 3}
      propertyPath: m_Positions.Array.data[3].y
      value: 1.4980073
      objectReference: {fileID: 0}
    - target: {fileID: 1170237601473649523, guid: e02f5c539ed97d14e80546d6ddb0946d, type: 3}
      propertyPath: m_Positions.Array.data[3].z
      value: 1.1845144
      objectReference: {fileID: 0}
    - target: {fileID: 1170237601473649523, guid: e02f5c539ed97d14e80546d6ddb0946d, type: 3}
      propertyPath: m_Positions.Array.data[4].x
      value: 1.5282537
      objectReference: {fileID: 0}
    - target: {fileID: 1170237601473649523, guid: e02f5c539ed97d14e80546d6ddb0946d, type: 3}
      propertyPath: m_Positions.Array.data[4].z
      value: 1.184503
      objectReference: {fileID: 0}
    - target: {fileID: 1170237601473649523, guid: e02f5c539ed97d14e80546d6ddb0946d, type: 3}
      propertyPath: m_Positions.Array.data[6].x
      value: 1.5282537
      objectReference: {fileID: 0}
    - target: {fileID: 1170237601473649523, guid: e02f5c539ed97d14e80546d6ddb0946d, type: 3}
      propertyPath: m_Positions.Array.data[6].y
      value: 1.4980073
      objectReference: {fileID: 0}
    - target: {fileID: 1170237601473649523, guid: e02f5c539ed97d14e80546d6ddb0946d, type: 3}
      propertyPath: m_Positions.Array.data[6].z
      value: 1.1845144
      objectReference: {fileID: 0}
    - target: {fileID: 1170237601473649523, guid: e02f5c539ed97d14e80546d6ddb0946d, type: 3}
      propertyPath: m_Positions.Array.data[7].x
      value: 1.5282538
      objectReference: {fileID: 0}
    - target: {fileID: 1170237601473649523, guid: e02f5c539ed97d14e80546d6ddb0946d, type: 3}
      propertyPath: m_Positions.Array.data[7].y
      value: 1.4980073
      objectReference: {fileID: 0}
    - target: {fileID: 1170237601473649523, guid: e02f5c539ed97d14e80546d6ddb0946d, type: 3}
      propertyPath: m_Positions.Array.data[7].z
      value: 0.000010748656
      objectReference: {fileID: 0}
    - target: {fileID: 1170237601473649523, guid: e02f5c539ed97d14e80546d6ddb0946d, type: 3}
      propertyPath: m_Positions.Array.data[9].x
      value: -0.84472275
      objectReference: {fileID: 0}
    - target: {fileID: 1170237601473649523, guid: e02f5c539ed97d14e80546d6ddb0946d, type: 3}
      propertyPath: m_Positions.Array.data[9].z
      value: 0.0000009290311
      objectReference: {fileID: 0}
    - target: {fileID: 1170237601473649523, guid: e02f5c539ed97d14e80546d6ddb0946d, type: 3}
      propertyPath: m_Tangents.Array.data[10].y
      value: 0
      objectReference: {fileID: 0}
    - target: {fileID: 1170237601473649523, guid: e02f5c539ed97d14e80546d6ddb0946d, type: 3}
      propertyPath: m_Tangents.Array.data[10].z
      value: -0.0000005380373
      objectReference: {fileID: 0}
    - target: {fileID: 1170237601473649523, guid: e02f5c539ed97d14e80546d6ddb0946d, type: 3}
      propertyPath: m_Tangents.Array.data[11].y
      value: 0
      objectReference: {fileID: 0}
    - target: {fileID: 1170237601473649523, guid: e02f5c539ed97d14e80546d6ddb0946d, type: 3}
      propertyPath: m_Tangents.Array.data[11].z
      value: -0.00000068456995
      objectReference: {fileID: 0}
    - target: {fileID: 1170237601473649523, guid: e02f5c539ed97d14e80546d6ddb0946d, type: 3}
      propertyPath: m_Tangents.Array.data[12].x
      value: 0.00000010064071
      objectReference: {fileID: 0}
    - target: {fileID: 1170237601473649523, guid: e02f5c539ed97d14e80546d6ddb0946d, type: 3}
      propertyPath: m_Tangents.Array.data[12].y
      value: 0
      objectReference: {fileID: 0}
    - target: {fileID: 1170237601473649523, guid: e02f5c539ed97d14e80546d6ddb0946d, type: 3}
      propertyPath: m_Tangents.Array.data[13].x
      value: 0.00000010064071
      objectReference: {fileID: 0}
    - target: {fileID: 1170237601473649523, guid: e02f5c539ed97d14e80546d6ddb0946d, type: 3}
      propertyPath: m_Tangents.Array.data[13].y
      value: 0
      objectReference: {fileID: 0}
    - target: {fileID: 1170237601473649523, guid: e02f5c539ed97d14e80546d6ddb0946d, type: 3}
      propertyPath: m_Tangents.Array.data[14].x
      value: 0.00000010064071
      objectReference: {fileID: 0}
    - target: {fileID: 1170237601473649523, guid: e02f5c539ed97d14e80546d6ddb0946d, type: 3}
      propertyPath: m_Tangents.Array.data[14].y
      value: 0
      objectReference: {fileID: 0}
    - target: {fileID: 1170237601473649523, guid: e02f5c539ed97d14e80546d6ddb0946d, type: 3}
      propertyPath: m_Tangents.Array.data[15].x
      value: 0.00000010064071
      objectReference: {fileID: 0}
    - target: {fileID: 1170237601473649523, guid: e02f5c539ed97d14e80546d6ddb0946d, type: 3}
      propertyPath: m_Tangents.Array.data[15].y
      value: 0
      objectReference: {fileID: 0}
    - target: {fileID: 1170237601473649523, guid: e02f5c539ed97d14e80546d6ddb0946d, type: 3}
      propertyPath: m_Textures0.Array.data[0].x
      value: 0.8447237
      objectReference: {fileID: 0}
    - target: {fileID: 1170237601473649523, guid: e02f5c539ed97d14e80546d6ddb0946d, type: 3}
      propertyPath: m_Textures0.Array.data[0].y
      value: 0.0032157984
      objectReference: {fileID: 0}
    - target: {fileID: 1170237601473649523, guid: e02f5c539ed97d14e80546d6ddb0946d, type: 3}
      propertyPath: m_Textures0.Array.data[1].x
      value: -1.5282528
      objectReference: {fileID: 0}
    - target: {fileID: 1170237601473649523, guid: e02f5c539ed97d14e80546d6ddb0946d, type: 3}
      propertyPath: m_Textures0.Array.data[1].y
      value: 0.0032157984
      objectReference: {fileID: 0}
    - target: {fileID: 1170237601473649523, guid: e02f5c539ed97d14e80546d6ddb0946d, type: 3}
      propertyPath: m_Textures0.Array.data[2].x
      value: 0.8447237
      objectReference: {fileID: 0}
    - target: {fileID: 1170237601473649523, guid: e02f5c539ed97d14e80546d6ddb0946d, type: 3}
      propertyPath: m_Textures0.Array.data[2].y
      value: 1.4980164
      objectReference: {fileID: 0}
    - target: {fileID: 1170237601473649523, guid: e02f5c539ed97d14e80546d6ddb0946d, type: 3}
      propertyPath: m_Textures0.Array.data[3].x
      value: -1.5282528
      objectReference: {fileID: 0}
    - target: {fileID: 1170237601473649523, guid: e02f5c539ed97d14e80546d6ddb0946d, type: 3}
      propertyPath: m_Textures0.Array.data[3].y
      value: 1.4980164
      objectReference: {fileID: 0}
    - target: {fileID: 1170237601473649523, guid: e02f5c539ed97d14e80546d6ddb0946d, type: 3}
      propertyPath: m_Textures0.Array.data[4].x
      value: 1.1845037
      objectReference: {fileID: 0}
    - target: {fileID: 1170237601473649523, guid: e02f5c539ed97d14e80546d6ddb0946d, type: 3}
      propertyPath: m_Textures0.Array.data[5].x
      value: 0.00000076902285
      objectReference: {fileID: 0}
    - target: {fileID: 1170237601473649523, guid: e02f5c539ed97d14e80546d6ddb0946d, type: 3}
      propertyPath: m_Textures0.Array.data[6].x
      value: 1.1845151
      objectReference: {fileID: 0}
    - target: {fileID: 1170237601473649523, guid: e02f5c539ed97d14e80546d6ddb0946d, type: 3}
      propertyPath: m_Textures0.Array.data[6].y
      value: 1.4980073
      objectReference: {fileID: 0}
    - target: {fileID: 1170237601473649523, guid: e02f5c539ed97d14e80546d6ddb0946d, type: 3}
      propertyPath: m_Textures0.Array.data[7].x
      value: 0.000011517679
      objectReference: {fileID: 0}
    - target: {fileID: 1170237601473649523, guid: e02f5c539ed97d14e80546d6ddb0946d, type: 3}
      propertyPath: m_Textures0.Array.data[7].y
      value: 1.4980073
      objectReference: {fileID: 0}
    - target: {fileID: 1170237601473649523, guid: e02f5c539ed97d14e80546d6ddb0946d, type: 3}
      propertyPath: m_Textures0.Array.data[9].x
      value: -0.84472275
      objectReference: {fileID: 0}
    - target: {fileID: 1170237601473649523, guid: e02f5c539ed97d14e80546d6ddb0946d, type: 3}
      propertyPath: m_Positions.Array.data[10].x
      value: 1.5282538
      objectReference: {fileID: 0}
    - target: {fileID: 1170237601473649523, guid: e02f5c539ed97d14e80546d6ddb0946d, type: 3}
      propertyPath: m_Positions.Array.data[10].y
      value: 1.4980073
      objectReference: {fileID: 0}
    - target: {fileID: 1170237601473649523, guid: e02f5c539ed97d14e80546d6ddb0946d, type: 3}
      propertyPath: m_Positions.Array.data[10].z
      value: 0.000010748656
      objectReference: {fileID: 0}
    - target: {fileID: 1170237601473649523, guid: e02f5c539ed97d14e80546d6ddb0946d, type: 3}
      propertyPath: m_Positions.Array.data[11].x
      value: -0.84472275
      objectReference: {fileID: 0}
    - target: {fileID: 1170237601473649523, guid: e02f5c539ed97d14e80546d6ddb0946d, type: 3}
      propertyPath: m_Positions.Array.data[11].y
      value: 1.4980073
      objectReference: {fileID: 0}
    - target: {fileID: 1170237601473649523, guid: e02f5c539ed97d14e80546d6ddb0946d, type: 3}
      propertyPath: m_Positions.Array.data[11].z
      value: 0.000012373124
      objectReference: {fileID: 0}
    - target: {fileID: 1170237601473649523, guid: e02f5c539ed97d14e80546d6ddb0946d, type: 3}
      propertyPath: m_Positions.Array.data[12].x
      value: -0.84472275
      objectReference: {fileID: 0}
    - target: {fileID: 1170237601473649523, guid: e02f5c539ed97d14e80546d6ddb0946d, type: 3}
      propertyPath: m_Positions.Array.data[12].z
      value: 0.0000009290311
      objectReference: {fileID: 0}
    - target: {fileID: 1170237601473649523, guid: e02f5c539ed97d14e80546d6ddb0946d, type: 3}
      propertyPath: m_Positions.Array.data[13].x
      value: -0.84472287
      objectReference: {fileID: 0}
    - target: {fileID: 1170237601473649523, guid: e02f5c539ed97d14e80546d6ddb0946d, type: 3}
      propertyPath: m_Positions.Array.data[13].z
      value: 1.1845046
      objectReference: {fileID: 0}
    - target: {fileID: 1170237601473649523, guid: e02f5c539ed97d14e80546d6ddb0946d, type: 3}
      propertyPath: m_Positions.Array.data[14].x
      value: -0.84472275
      objectReference: {fileID: 0}
    - target: {fileID: 1170237601473649523, guid: e02f5c539ed97d14e80546d6ddb0946d, type: 3}
      propertyPath: m_Positions.Array.data[14].y
      value: 1.4980073
      objectReference: {fileID: 0}
    - target: {fileID: 1170237601473649523, guid: e02f5c539ed97d14e80546d6ddb0946d, type: 3}
      propertyPath: m_Positions.Array.data[14].z
      value: 0.000012373124
      objectReference: {fileID: 0}
    - target: {fileID: 1170237601473649523, guid: e02f5c539ed97d14e80546d6ddb0946d, type: 3}
      propertyPath: m_Positions.Array.data[15].x
      value: -0.84472287
      objectReference: {fileID: 0}
    - target: {fileID: 1170237601473649523, guid: e02f5c539ed97d14e80546d6ddb0946d, type: 3}
      propertyPath: m_Positions.Array.data[15].y
      value: 1.4980073
      objectReference: {fileID: 0}
    - target: {fileID: 1170237601473649523, guid: e02f5c539ed97d14e80546d6ddb0946d, type: 3}
      propertyPath: m_Positions.Array.data[15].z
      value: 1.1845161
      objectReference: {fileID: 0}
    - target: {fileID: 1170237601473649523, guid: e02f5c539ed97d14e80546d6ddb0946d, type: 3}
      propertyPath: m_Positions.Array.data[16].x
      value: -0.84472287
      objectReference: {fileID: 0}
    - target: {fileID: 1170237601473649523, guid: e02f5c539ed97d14e80546d6ddb0946d, type: 3}
      propertyPath: m_Positions.Array.data[16].y
      value: 1.4980073
      objectReference: {fileID: 0}
    - target: {fileID: 1170237601473649523, guid: e02f5c539ed97d14e80546d6ddb0946d, type: 3}
      propertyPath: m_Positions.Array.data[16].z
      value: 1.1845161
      objectReference: {fileID: 0}
    - target: {fileID: 1170237601473649523, guid: e02f5c539ed97d14e80546d6ddb0946d, type: 3}
      propertyPath: m_Positions.Array.data[17].x
      value: 1.5282537
      objectReference: {fileID: 0}
    - target: {fileID: 1170237601473649523, guid: e02f5c539ed97d14e80546d6ddb0946d, type: 3}
      propertyPath: m_Positions.Array.data[17].y
      value: 1.4980073
      objectReference: {fileID: 0}
    - target: {fileID: 1170237601473649523, guid: e02f5c539ed97d14e80546d6ddb0946d, type: 3}
      propertyPath: m_Positions.Array.data[17].z
      value: 1.1845144
      objectReference: {fileID: 0}
    - target: {fileID: 1170237601473649523, guid: e02f5c539ed97d14e80546d6ddb0946d, type: 3}
      propertyPath: m_Positions.Array.data[18].x
      value: -0.84472275
      objectReference: {fileID: 0}
    - target: {fileID: 1170237601473649523, guid: e02f5c539ed97d14e80546d6ddb0946d, type: 3}
      propertyPath: m_Positions.Array.data[18].y
      value: 1.4980073
      objectReference: {fileID: 0}
    - target: {fileID: 1170237601473649523, guid: e02f5c539ed97d14e80546d6ddb0946d, type: 3}
      propertyPath: m_Positions.Array.data[18].z
      value: 0.000012373124
      objectReference: {fileID: 0}
    - target: {fileID: 1170237601473649523, guid: e02f5c539ed97d14e80546d6ddb0946d, type: 3}
      propertyPath: m_Positions.Array.data[19].x
      value: 1.5282538
      objectReference: {fileID: 0}
    - target: {fileID: 1170237601473649523, guid: e02f5c539ed97d14e80546d6ddb0946d, type: 3}
      propertyPath: m_Positions.Array.data[19].y
      value: 1.4980073
      objectReference: {fileID: 0}
    - target: {fileID: 1170237601473649523, guid: e02f5c539ed97d14e80546d6ddb0946d, type: 3}
      propertyPath: m_Positions.Array.data[19].z
      value: 0.000010748656
      objectReference: {fileID: 0}
    - target: {fileID: 1170237601473649523, guid: e02f5c539ed97d14e80546d6ddb0946d, type: 3}
      propertyPath: m_Positions.Array.data[20].x
      value: -0.84472275
      objectReference: {fileID: 0}
    - target: {fileID: 1170237601473649523, guid: e02f5c539ed97d14e80546d6ddb0946d, type: 3}
      propertyPath: m_Positions.Array.data[20].z
      value: 0.0000009290311
      objectReference: {fileID: 0}
    - target: {fileID: 1170237601473649523, guid: e02f5c539ed97d14e80546d6ddb0946d, type: 3}
      propertyPath: m_Positions.Array.data[22].x
      value: -0.84472287
      objectReference: {fileID: 0}
    - target: {fileID: 1170237601473649523, guid: e02f5c539ed97d14e80546d6ddb0946d, type: 3}
      propertyPath: m_Positions.Array.data[22].z
      value: 1.1845046
      objectReference: {fileID: 0}
    - target: {fileID: 1170237601473649523, guid: e02f5c539ed97d14e80546d6ddb0946d, type: 3}
      propertyPath: m_Positions.Array.data[23].x
      value: 1.5282537
      objectReference: {fileID: 0}
    - target: {fileID: 1170237601473649523, guid: e02f5c539ed97d14e80546d6ddb0946d, type: 3}
      propertyPath: m_Positions.Array.data[23].z
      value: 1.184503
      objectReference: {fileID: 0}
    - target: {fileID: 1170237601473649523, guid: e02f5c539ed97d14e80546d6ddb0946d, type: 3}
      propertyPath: m_Textures0.Array.data[10].x
      value: 1.5282538
      objectReference: {fileID: 0}
    - target: {fileID: 1170237601473649523, guid: e02f5c539ed97d14e80546d6ddb0946d, type: 3}
      propertyPath: m_Textures0.Array.data[10].y
      value: 1.4980073
      objectReference: {fileID: 0}
    - target: {fileID: 1170237601473649523, guid: e02f5c539ed97d14e80546d6ddb0946d, type: 3}
      propertyPath: m_Textures0.Array.data[11].x
      value: -0.84472275
      objectReference: {fileID: 0}
    - target: {fileID: 1170237601473649523, guid: e02f5c539ed97d14e80546d6ddb0946d, type: 3}
      propertyPath: m_Textures0.Array.data[11].y
      value: 1.4980073
      objectReference: {fileID: 0}
    - target: {fileID: 1170237601473649523, guid: e02f5c539ed97d14e80546d6ddb0946d, type: 3}
      propertyPath: m_Textures0.Array.data[12].x
      value: -0.0000010140446
      objectReference: {fileID: 0}
    - target: {fileID: 1170237601473649523, guid: e02f5c539ed97d14e80546d6ddb0946d, type: 3}
      propertyPath: m_Textures0.Array.data[12].y
      value: 0.00320673
      objectReference: {fileID: 0}
    - target: {fileID: 1170237601473649523, guid: e02f5c539ed97d14e80546d6ddb0946d, type: 3}
      propertyPath: m_Textures0.Array.data[13].x
      value: -1.1845047
      objectReference: {fileID: 0}
    - target: {fileID: 1170237601473649523, guid: e02f5c539ed97d14e80546d6ddb0946d, type: 3}
      propertyPath: m_Textures0.Array.data[13].y
      value: 0.00320673
      objectReference: {fileID: 0}
    - target: {fileID: 1170237601473649523, guid: e02f5c539ed97d14e80546d6ddb0946d, type: 3}
      propertyPath: m_Textures0.Array.data[14].x
      value: -0.0000124581375
      objectReference: {fileID: 0}
    - target: {fileID: 1170237601473649523, guid: e02f5c539ed97d14e80546d6ddb0946d, type: 3}
      propertyPath: m_Textures0.Array.data[14].y
      value: 1.4980073
      objectReference: {fileID: 0}
    - target: {fileID: 1170237601473649523, guid: e02f5c539ed97d14e80546d6ddb0946d, type: 3}
      propertyPath: m_Textures0.Array.data[15].x
      value: -1.1845162
      objectReference: {fileID: 0}
    - target: {fileID: 1170237601473649523, guid: e02f5c539ed97d14e80546d6ddb0946d, type: 3}
      propertyPath: m_Textures0.Array.data[15].y
      value: 1.4980073
      objectReference: {fileID: 0}
    - target: {fileID: 1170237601473649523, guid: e02f5c539ed97d14e80546d6ddb0946d, type: 3}
      propertyPath: m_Textures0.Array.data[16].x
      value: -0.84472287
      objectReference: {fileID: 0}
    - target: {fileID: 1170237601473649523, guid: e02f5c539ed97d14e80546d6ddb0946d, type: 3}
      propertyPath: m_Textures0.Array.data[16].y
      value: 1.1845161
      objectReference: {fileID: 0}
    - target: {fileID: 1170237601473649523, guid: e02f5c539ed97d14e80546d6ddb0946d, type: 3}
      propertyPath: m_Textures0.Array.data[17].x
      value: 1.5282537
      objectReference: {fileID: 0}
    - target: {fileID: 1170237601473649523, guid: e02f5c539ed97d14e80546d6ddb0946d, type: 3}
      propertyPath: m_Textures0.Array.data[17].y
      value: 1.1845144
      objectReference: {fileID: 0}
    - target: {fileID: 1170237601473649523, guid: e02f5c539ed97d14e80546d6ddb0946d, type: 3}
      propertyPath: m_Textures0.Array.data[18].x
      value: -0.84472275
      objectReference: {fileID: 0}
    - target: {fileID: 1170237601473649523, guid: e02f5c539ed97d14e80546d6ddb0946d, type: 3}
      propertyPath: m_Textures0.Array.data[18].y
      value: 0.000012373124
      objectReference: {fileID: 0}
    - target: {fileID: 1170237601473649523, guid: e02f5c539ed97d14e80546d6ddb0946d, type: 3}
      propertyPath: m_Textures0.Array.data[19].x
      value: 1.5282538
      objectReference: {fileID: 0}
    - target: {fileID: 1170237601473649523, guid: e02f5c539ed97d14e80546d6ddb0946d, type: 3}
      propertyPath: m_Textures0.Array.data[19].y
      value: 0.000010748656
      objectReference: {fileID: 0}
    - target: {fileID: 1170237601473649523, guid: e02f5c539ed97d14e80546d6ddb0946d, type: 3}
      propertyPath: m_Textures0.Array.data[20].x
      value: 0.84472275
      objectReference: {fileID: 0}
    - target: {fileID: 1170237601473649523, guid: e02f5c539ed97d14e80546d6ddb0946d, type: 3}
      propertyPath: m_Textures0.Array.data[20].y
      value: 0.0000009290311
      objectReference: {fileID: 0}
    - target: {fileID: 1170237601473649523, guid: e02f5c539ed97d14e80546d6ddb0946d, type: 3}
      propertyPath: m_Textures0.Array.data[22].x
      value: 0.84472287
      objectReference: {fileID: 0}
    - target: {fileID: 1170237601473649523, guid: e02f5c539ed97d14e80546d6ddb0946d, type: 3}
      propertyPath: m_Textures0.Array.data[22].y
      value: 1.1845046
      objectReference: {fileID: 0}
    - target: {fileID: 1170237601473649523, guid: e02f5c539ed97d14e80546d6ddb0946d, type: 3}
      propertyPath: m_Textures0.Array.data[23].x
      value: -1.5282537
      objectReference: {fileID: 0}
    - target: {fileID: 1170237601473649523, guid: e02f5c539ed97d14e80546d6ddb0946d, type: 3}
      propertyPath: m_Textures0.Array.data[23].y
      value: 1.184503
      objectReference: {fileID: 0}
    - target: {fileID: 1170237601473649523, guid: e02f5c539ed97d14e80546d6ddb0946d, type: 3}
      propertyPath: m_SelectedFaces.Array.data[0]
      value: 0
      objectReference: {fileID: 0}
    - target: {fileID: 1170237601473649523, guid: e02f5c539ed97d14e80546d6ddb0946d, type: 3}
      propertyPath: m_SelectedVertices.Array.size
      value: 4
      objectReference: {fileID: 0}
    - target: {fileID: 1170237601473649523, guid: e02f5c539ed97d14e80546d6ddb0946d, type: 3}
      propertyPath: m_SelectedEdges.Array.data[0].a
      value: 0
      objectReference: {fileID: 0}
    - target: {fileID: 1170237601473649523, guid: e02f5c539ed97d14e80546d6ddb0946d, type: 3}
      propertyPath: m_SelectedEdges.Array.data[0].b
      value: 1
      objectReference: {fileID: 0}
    - target: {fileID: 1170237601473649523, guid: e02f5c539ed97d14e80546d6ddb0946d, type: 3}
      propertyPath: m_SelectedEdges.Array.data[1].a
      value: 2
      objectReference: {fileID: 0}
    - target: {fileID: 1170237601473649523, guid: e02f5c539ed97d14e80546d6ddb0946d, type: 3}
      propertyPath: m_SelectedEdges.Array.data[1].b
      value: 0
      objectReference: {fileID: 0}
    - target: {fileID: 1170237601473649523, guid: e02f5c539ed97d14e80546d6ddb0946d, type: 3}
      propertyPath: m_SelectedEdges.Array.data[2].a
      value: 1
      objectReference: {fileID: 0}
    - target: {fileID: 1170237601473649523, guid: e02f5c539ed97d14e80546d6ddb0946d, type: 3}
      propertyPath: m_SelectedEdges.Array.data[2].b
      value: 3
      objectReference: {fileID: 0}
    - target: {fileID: 1170237601473649523, guid: e02f5c539ed97d14e80546d6ddb0946d, type: 3}
      propertyPath: m_SelectedEdges.Array.data[3].a
      value: 3
      objectReference: {fileID: 0}
    - target: {fileID: 1170237601473649523, guid: e02f5c539ed97d14e80546d6ddb0946d, type: 3}
      propertyPath: m_SelectedEdges.Array.data[3].b
      value: 2
      objectReference: {fileID: 0}
    - target: {fileID: 1170237601473649523, guid: e02f5c539ed97d14e80546d6ddb0946d, type: 3}
      propertyPath: m_SelectedVertices.Array.data[0]
      value: 0
      objectReference: {fileID: 0}
    - target: {fileID: 1170237601473649523, guid: e02f5c539ed97d14e80546d6ddb0946d, type: 3}
      propertyPath: m_SelectedVertices.Array.data[1]
      value: 1
      objectReference: {fileID: 0}
    - target: {fileID: 1170237601473649523, guid: e02f5c539ed97d14e80546d6ddb0946d, type: 3}
      propertyPath: m_SelectedVertices.Array.data[2]
      value: 2
      objectReference: {fileID: 0}
    - target: {fileID: 1170237601473649523, guid: e02f5c539ed97d14e80546d6ddb0946d, type: 3}
      propertyPath: m_SelectedVertices.Array.data[3]
      value: 3
      objectReference: {fileID: 0}
    - target: {fileID: 4585106988410952639, guid: e02f5c539ed97d14e80546d6ddb0946d, type: 3}
      propertyPath: m_RootOrder
      value: 0
      objectReference: {fileID: 0}
    - target: {fileID: 4585106988410952639, guid: e02f5c539ed97d14e80546d6ddb0946d, type: 3}
      propertyPath: m_LocalPosition.x
      value: 23.863
      objectReference: {fileID: 0}
    - target: {fileID: 4585106988410952639, guid: e02f5c539ed97d14e80546d6ddb0946d, type: 3}
      propertyPath: m_LocalPosition.y
      value: -0.00000023841858
      objectReference: {fileID: 0}
    - target: {fileID: 4585106988410952639, guid: e02f5c539ed97d14e80546d6ddb0946d, type: 3}
      propertyPath: m_LocalPosition.z
      value: 15.225
      objectReference: {fileID: 0}
    - target: {fileID: 4585106988410952639, guid: e02f5c539ed97d14e80546d6ddb0946d, type: 3}
      propertyPath: m_LocalRotation.w
      value: 0.7071068
      objectReference: {fileID: 0}
    - target: {fileID: 4585106988410952639, guid: e02f5c539ed97d14e80546d6ddb0946d, type: 3}
      propertyPath: m_LocalRotation.x
      value: 0
      objectReference: {fileID: 0}
    - target: {fileID: 4585106988410952639, guid: e02f5c539ed97d14e80546d6ddb0946d, type: 3}
      propertyPath: m_LocalRotation.y
      value: 0.7071068
      objectReference: {fileID: 0}
    - target: {fileID: 4585106988410952639, guid: e02f5c539ed97d14e80546d6ddb0946d, type: 3}
      propertyPath: m_LocalRotation.z
      value: 0
      objectReference: {fileID: 0}
    - target: {fileID: 4585106988410952639, guid: e02f5c539ed97d14e80546d6ddb0946d, type: 3}
      propertyPath: m_LocalEulerAnglesHint.x
      value: 0
      objectReference: {fileID: 0}
    - target: {fileID: 4585106988410952639, guid: e02f5c539ed97d14e80546d6ddb0946d, type: 3}
      propertyPath: m_LocalEulerAnglesHint.y
      value: 90
      objectReference: {fileID: 0}
    - target: {fileID: 4585106988410952639, guid: e02f5c539ed97d14e80546d6ddb0946d, type: 3}
      propertyPath: m_LocalEulerAnglesHint.z
      value: 0
      objectReference: {fileID: 0}
    - target: {fileID: 5369233602383244387, guid: e02f5c539ed97d14e80546d6ddb0946d, type: 3}
      propertyPath: m_Mesh
      value: 
      objectReference: {fileID: 0}
    - target: {fileID: 5512844111452136285, guid: e02f5c539ed97d14e80546d6ddb0946d, type: 3}
      propertyPath: m_Mesh
      value: 
      objectReference: {fileID: 0}
    m_RemovedComponents: []
  m_SourcePrefab: {fileID: 100100000, guid: e02f5c539ed97d14e80546d6ddb0946d, type: 3}
